<?xml version="1.0" encoding="UTF-8" standalone="no"?>
<!-- Created with Inkscape (http://www.inkscape.org/) -->

<svg
   xmlns:dc="http://purl.org/dc/elements/1.1/"
   xmlns:cc="http://creativecommons.org/ns#"
   xmlns:rdf="http://www.w3.org/1999/02/22-rdf-syntax-ns#"
   xmlns:svg="http://www.w3.org/2000/svg"
   xmlns="http://www.w3.org/2000/svg"
   xmlns:xlink="http://www.w3.org/1999/xlink"
   xmlns:sodipodi="http://sodipodi.sourceforge.net/DTD/sodipodi-0.dtd"
   xmlns:inkscape="http://www.inkscape.org/namespaces/inkscape"
   width="210mm"
   height="297mm"
   viewBox="0 0 210 297"
   version="1.1"
   id="svg8"
   inkscape:version="0.92.3 (2405546, 2018-03-11)"
   sodipodi:docname="dibujo-1.svg">
  <defs
     id="defs2">
    <linearGradient
       inkscape:collect="always"
       id="linearGradient929">
      <stop
         style="stop-color:#ffffff;stop-opacity:1;"
         offset="0"
         id="stop925" />
      <stop
         style="stop-color:#ffffff;stop-opacity:0;"
         offset="1"
         id="stop927" />
    </linearGradient>
    <linearGradient
       inkscape:collect="always"
       xlink:href="#linearGradient929"
       id="linearGradient931"
       x1="419.34589"
       y1="14.763379"
       x2="419.34589"
       y2="-35.750561"
       gradientUnits="userSpaceOnUse"
       gradientTransform="scale(3.7795276)" />
    <linearGradient
       inkscape:collect="always"
       xlink:href="#linearGradient929"
       id="linearGradient978"
       gradientUnits="userSpaceOnUse"
       gradientTransform="scale(3.7795276)"
       x1="419.34589"
       y1="14.763379"
       x2="419.34589"
       y2="-35.750561" />
    <linearGradient
       inkscape:collect="always"
       xlink:href="#linearGradient929"
       id="linearGradient996"
       gradientUnits="userSpaceOnUse"
       gradientTransform="scale(3.7795276)"
       x1="419.34589"
       y1="14.763379"
       x2="419.34589"
       y2="-35.750561" />
  </defs>
  <sodipodi:namedview
     id="base"
     pagecolor="#ffffff"
     bordercolor="#666666"
     borderopacity="1.0"
     inkscape:pageopacity="0.0"
     inkscape:pageshadow="2"
     inkscape:zoom="0.49497475"
     inkscape:cx="882.40989"
     inkscape:cy="1355.3126"
     inkscape:document-units="mm"
     inkscape:current-layer="layer1"
     showgrid="false"
     inkscape:window-width="1321"
     inkscape:window-height="713"
     inkscape:window-x="45"
     inkscape:window-y="27"
     inkscape:window-maximized="1"
     showguides="false"
     inkscape:guide-bbox="true">
    <sodipodi:guide
       position="400.83747,367.96333"
       orientation="-1,8.5311895e-07"
       id="guide897"
       inkscape:locked="false" />
  </sodipodi:namedview>
  <metadata
     id="metadata5">
    <rdf:RDF>
      <cc:Work
         rdf:about="">
        <dc:format>image/svg+xml</dc:format>
        <dc:type
           rdf:resource="http://purl.org/dc/dcmitype/StillImage" />
        <dc:title></dc:title>
      </cc:Work>
    </rdf:RDF>
  </metadata>
  <g
     inkscape:label="Capa 1"
     inkscape:groupmode="layer"
     id="layer1">
    <rect
       style="opacity:0;fill:#008000;fill-opacity:1;stroke:#60a0ff;stroke-width:0;stroke-linecap:round;stroke-linejoin:bevel;stroke-miterlimit:4;stroke-dasharray:none;stroke-opacity:1"
       id="rect980"
       width="77.977852"
       height="77.977852"
       x="470.42676"
       y="-87.568428"
       ry="1.3171927"
       inkscape:export-filename="/home/erick/AndroidStudioProjects/GpsViajes6/app/src/main/res/mipmap-xxxhdpi/ic_launcher2.png"
       inkscape:export-xdpi="62.540852"
       inkscape:export-ydpi="62.540852" />
    <circle
       style="opacity:1;fill:#002255;fill-opacity:1;stroke:#60a0ff;stroke-width:0;stroke-linecap:round;stroke-linejoin:bevel;stroke-miterlimit:4;stroke-dasharray:none;stroke-opacity:1"
       id="path886"
       cx="416.94043"
       cy="-48.04496"
       r="35.546848" />
    <rect
       style="opacity:1;fill:#002255;fill-opacity:1;stroke:#60a0ff;stroke-width:0.2;stroke-linecap:round;stroke-linejoin:bevel;stroke-miterlimit:4;stroke-dasharray:none;stroke-opacity:1"
       id="rect864"
       width="210.15475"
       height="298.6012"
       x="0"
       y="-0.84523809" />
    <text
       xml:space="preserve"
       style="font-style:normal;font-variant:normal;font-weight:normal;font-stretch:normal;font-size:134.79922485px;line-height:1.25;font-family:'Arial Black';-inkscape-font-specification:'Arial Black, ';letter-spacing:0px;word-spacing:0px;fill:#000000;fill-opacity:1;stroke:none;stroke-width:1.0109942"
       x="-134.80103"
       y="126.09329"
       id="text822"><tspan
         sodipodi:role="line"
         id="tspan820"
         x="-134.80103"
         y="126.09329"
         style="font-style:normal;font-variant:normal;font-weight:normal;font-stretch:normal;font-family:Meera;-inkscape-font-specification:Meera;stroke-width:1.0109942">v</tspan></text>
    <path
       style="opacity:1;fill:#87cdde;fill-opacity:1;stroke:#60a0ff;stroke-width:0;stroke-linecap:round;stroke-linejoin:bevel;stroke-miterlimit:4;stroke-dasharray:none;stroke-opacity:1"
       d="m 303.80763,-67.465917 c -6.81066,0 -12.33181,5.521162 -12.33181,12.331829 0,6.81066 9.17501,14.88956 12.33181,26.58192 3.43084,-11.96641 12.33182,-19.77126 12.33182,-26.58192 0,-6.810667 -5.52115,-12.331829 -12.33182,-12.331829 z m 0,5.937553 a 5.8461883,5.8461883 0 0 1 5.84625,5.846156 5.8461883,5.8461883 0 0 1 -5.84625,5.84625 5.8461883,5.8461883 0 0 1 -5.84612,-5.84625 5.8461883,5.8461883 0 0 1 5.84612,-5.846156 z"
       id="path815"
       inkscape:connector-curvature="0"
       inkscape:export-filename="/home/erick/AndroidStudioProjects/GpsViajes6/app/src/main/res/mipmap-xxhdpi/logo_portada.png"
       inkscape:export-xdpi="125.26313"
       inkscape:export-ydpi="125.26313" />
    <text
       xml:space="preserve"
       style="font-style:normal;font-weight:normal;font-size:25.70610428px;line-height:0.85000002;font-family:sans-serif;letter-spacing:0px;word-spacing:0px;fill:#87cdde;fill-opacity:1;stroke:none;stroke-width:0.19279578"
       x="302.83035"
       y="-9.9891863"
       id="text860"
       inkscape:export-filename="/home/erick/AndroidStudioProjects/GpsViajes6/app/src/main/res/mipmap-xxhdpi/logo_portada.png"
       inkscape:export-xdpi="125.26313"
       inkscape:export-ydpi="125.26313"><tspan
         sodipodi:role="line"
         id="tspan858"
         x="302.83035"
         y="-9.9891863"
         style="font-style:normal;font-variant:normal;font-weight:normal;font-stretch:normal;font-family:Dyuthi;-inkscape-font-specification:Dyuthi;text-align:center;text-anchor:middle;fill:#87cdde;fill-opacity:1;stroke-width:0.19279578">Valmavar</tspan><tspan
         sodipodi:role="line"
         x="302.83035"
         y="13.392329"
         style="font-style:normal;font-variant:normal;font-weight:normal;font-stretch:normal;font-family:Dyuthi;-inkscape-font-specification:Dyuthi;text-align:center;text-anchor:middle;fill:#87cdde;fill-opacity:1;stroke-width:0.19279578"
         id="tspan862">Track</tspan></text>
    <path
       inkscape:connector-curvature="0"
       id="path866"
       d="m 254.04879,115.10259 c -9.34662,0 -16.92357,7.57698 -16.92357,16.92359 0,9.34662 12.59134,20.43368 16.92357,36.47971 4.70831,-16.42211 16.92357,-27.13309 16.92357,-36.47971 0,-9.34661 -7.57695,-16.92359 -16.92357,-16.92359 z m 0,8.14841 a 8.023017,8.023017 0 0 1 8.02311,8.02297 8.023017,8.023017 0 0 1 -8.02311,8.02311 8.023017,8.023017 0 0 1 -8.02294,-8.02311 8.023017,8.023017 0 0 1 8.02294,-8.02297 z"
       style="opacity:1;fill:#2a7fff;fill-opacity:1;stroke:#60a0ff;stroke-width:0.8175422;stroke-linecap:round;stroke-linejoin:bevel;stroke-miterlimit:4;stroke-dasharray:none;stroke-opacity:1" />
    <text
       id="text872"
       y="135.57919"
       x="275.07034"
       style="font-style:normal;font-weight:normal;font-size:35.27777481px;line-height:0.85000002;font-family:sans-serif;letter-spacing:0px;word-spacing:0px;fill:#2a7fff;fill-opacity:1;stroke:none;stroke-width:0.26458332"
       xml:space="preserve"><tspan
         style="font-style:normal;font-variant:normal;font-weight:normal;font-stretch:normal;font-family:Dyuthi;-inkscape-font-specification:Dyuthi;fill:#2a7fff;fill-opacity:1;stroke-width:0.26458332"
         y="135.57919"
         x="275.07034"
         id="tspan868"
         sodipodi:role="line">Valmavar</tspan><tspan
         id="tspan870"
         style="font-style:normal;font-variant:normal;font-weight:normal;font-stretch:normal;font-family:Dyuthi;-inkscape-font-specification:Dyuthi;fill:#2a7fff;fill-opacity:1;stroke-width:0.26458332"
         y="167.66681"
         x="275.07034"
         sodipodi:role="line">Track</tspan></text>
    <g
       id="g921"
       transform="translate(0.37798724,-0.61439934)">
      <path
         style="opacity:0.12;fill:#ffffff;fill-opacity:1;stroke:#60a0ff;stroke-width:0;stroke-linecap:round;stroke-linejoin:bevel;stroke-miterlimit:4;stroke-dasharray:none;stroke-opacity:1"
         d="m 416.56244,-77.705476 c -10.59742,0 -19.18827,8.590932 -19.18827,19.188341 0,10.597388 14.27628,23.168167 19.18827,41.36149 5.3384,-18.619746 19.1883,-30.764102 19.1883,-41.36149 0,-10.597409 -8.59085,-19.188341 -19.1883,-19.188341 z m 0,9.238838 a 9.0966744,9.0966744 0 0 1 9.0968,9.096626 9.0966744,9.0966744 0 0 1 -9.0968,9.096769 9.0966744,9.0966744 0 0 1 -9.09657,-9.096769 9.0966744,9.0966744 0 0 1 9.09657,-9.096626 z"
         id="path884"
         inkscape:connector-curvature="0"
         inkscape:export-filename="/home/erick/AndroidStudioProjects/GpsViajes6/app/src/main/res/mipmap-xxhdpi/logo_portada.png"
         inkscape:export-xdpi="125.26313"
         inkscape:export-ydpi="125.26313" />
      <text
         id="text908"
         y="-43.472069"
         x="383.83865"
         style="font-style:normal;font-weight:normal;font-size:13.2251091px;line-height:1.25;font-family:sans-serif;letter-spacing:0px;word-spacing:0px;fill:#000000;fill-opacity:1;stroke:none;stroke-width:0.09918834"
         xml:space="preserve"><tspan
           style="font-style:normal;font-variant:normal;font-weight:normal;font-stretch:normal;font-family:Dyuthi;-inkscape-font-specification:Dyuthi;fill:#ffffff;stroke-width:0.09918834"
           y="-43.472069"
           x="383.83865"
           id="tspan906"
           sodipodi:role="line">ValmaTrack</tspan></text>
    </g>
    <path
       style="opacity:0.27000002;fill:url(#linearGradient931);fill-opacity:1;stroke:#60a0ff;stroke-width:0;stroke-linecap:round;stroke-linejoin:bevel;stroke-miterlimit:4;stroke-dasharray:none;stroke-opacity:1"
       d="M 1575.7148 -143.9082 A 208.57143 137.85715 0 0 0 1456.9434 -119.18164 A 134.35029 134.35029 0 0 0 1575.8379 -47.236328 A 134.35029 134.35029 0 0 0 1694.7227 -119.20703 A 208.57143 137.85715 0 0 0 1575.7148 -143.9082 z "
       transform="scale(0.26458333)"
       id="path923" />
    <g
       id="g976"
       transform="translate(92.475262,-0.53462528)"
       inkscape:export-filename="/home/erick/AndroidStudioProjects/GpsViajes6/app/src/main/res/mipmap-xxxhdpi/ic_launcher2.png"
       inkscape:export-xdpi="62.540852"
       inkscape:export-ydpi="62.540852">
      <circle
         style="opacity:1;fill:#002255;fill-opacity:1;stroke:#60a0ff;stroke-width:0;stroke-linecap:round;stroke-linejoin:bevel;stroke-miterlimit:4;stroke-dasharray:none;stroke-opacity:1"
         id="circle958"
         cx="416.94043"
         cy="-48.04496"
         r="35.546848" />
      <g
         id="g966"
         transform="translate(0.37798724,-0.61439934)">
        <path
           style="opacity:0.12000002;fill:#ffffff;fill-opacity:1;stroke:#60a0ff;stroke-width:0;stroke-linecap:round;stroke-linejoin:bevel;stroke-miterlimit:4;stroke-dasharray:none;stroke-opacity:1"
           d="m 416.56244,-77.705476 c -10.59742,0 -19.18827,8.590932 -19.18827,19.188341 0,10.597388 14.27628,23.168167 19.18827,41.36149 5.3384,-18.619746 19.1883,-30.764102 19.1883,-41.36149 0,-10.597409 -8.59085,-19.188341 -19.1883,-19.188341 z m 0,9.238838 a 9.0966744,9.0966744 0 0 1 9.0968,9.096626 9.0966744,9.0966744 0 0 1 -9.0968,9.096769 9.0966744,9.0966744 0 0 1 -9.09657,-9.096769 9.0966744,9.0966744 0 0 1 9.09657,-9.096626 z"
           id="path960"
           inkscape:connector-curvature="0"
           inkscape:export-filename="/home/erick/AndroidStudioProjects/GpsViajes6/app/src/main/res/mipmap-xxhdpi/logo_portada.png"
           inkscape:export-xdpi="125.26313"
           inkscape:export-ydpi="125.26313" />
        <text
           id="text964"
           y="-43.472069"
           x="383.83865"
           style="font-style:normal;font-weight:normal;font-size:13.2251091px;line-height:1.25;font-family:sans-serif;letter-spacing:0px;word-spacing:0px;fill:#000000;fill-opacity:1;stroke:none;stroke-width:0.09918834"
           xml:space="preserve"><tspan
             style="font-style:normal;font-variant:normal;font-weight:normal;font-stretch:normal;font-family:Dyuthi;-inkscape-font-specification:Dyuthi;fill:#ffffff;stroke-width:0.09918834"
             y="-43.472069"
             x="383.83865"
             id="tspan962"
             sodipodi:role="line">ValmaTrack</tspan></text>
      </g>
      <path
         style="opacity:0.27000002;fill:url(#linearGradient978);fill-opacity:1;stroke:#60a0ff;stroke-width:0;stroke-linecap:round;stroke-linejoin:bevel;stroke-miterlimit:4;stroke-dasharray:none;stroke-opacity:1"
         d="m 1575.7148,-143.9082 a 208.57143,137.85715 0 0 0 -118.7714,24.72656 134.35029,134.35029 0 0 0 118.8945,71.945312 134.35029,134.35029 0 0 0 118.8848,-71.970702 208.57143,137.85715 0 0 0 -119.0079,-24.70117 z"
         transform="scale(0.26458333)"
         id="path968"
         inkscape:connector-curvature="0" />
    </g>
    <g
       inkscape:export-ydpi="89.318512"
       inkscape:export-xdpi="89.318512"
       inkscape:export-filename="/home/erick/AndroidStudioProjects/GpsViajes6/app/src/main/res/mipmap-hdpi/logo_portada.png"
       transform="translate(-232.18323,-50.011189)"
       id="g994">
      <circle
         r="35.546848"
         cy="-48.04496"
         cx="416.94043"
         id="circle982"
         style="opacity:1;fill:#002255;fill-opacity:1;stroke:#60a0ff;stroke-width:0;stroke-linecap:round;stroke-linejoin:bevel;stroke-miterlimit:4;stroke-dasharray:none;stroke-opacity:1" />
      <g
         transform="translate(0.37798724,-0.61439934)"
         id="g990">
        <path
           inkscape:export-ydpi="125.26313"
           inkscape:export-xdpi="125.26313"
           inkscape:export-filename="/home/erick/AndroidStudioProjects/GpsViajes6/app/src/main/res/mipmap-xxhdpi/logo_portada.png"
           inkscape:connector-curvature="0"
           id="path984"
           d="m 416.56244,-77.705476 c -10.59742,0 -19.18827,8.590932 -19.18827,19.188341 0,10.597388 14.27628,23.168167 19.18827,41.36149 5.3384,-18.619746 19.1883,-30.764102 19.1883,-41.36149 0,-10.597409 -8.59085,-19.188341 -19.1883,-19.188341 z m 0,9.238838 a 9.0966744,9.0966744 0 0 1 9.0968,9.096626 9.0966744,9.0966744 0 0 1 -9.0968,9.096769 9.0966744,9.0966744 0 0 1 -9.09657,-9.096769 9.0966744,9.0966744 0 0 1 9.09657,-9.096626 z"
           style="opacity:0.12000002;fill:#ffffff;fill-opacity:1;stroke:#60a0ff;stroke-width:0;stroke-linecap:round;stroke-linejoin:bevel;stroke-miterlimit:4;stroke-dasharray:none;stroke-opacity:1" />
        <text
           xml:space="preserve"
           style="font-style:normal;font-weight:normal;font-size:13.2251091px;line-height:1.25;font-family:sans-serif;letter-spacing:0px;word-spacing:0px;fill:#000000;fill-opacity:1;stroke:none;stroke-width:0.09918834"
           x="383.83865"
           y="-43.472069"
           id="text988"><tspan
             sodipodi:role="line"
             id="tspan986"
             x="383.83865"
             y="-43.472069"
             style="font-style:normal;font-variant:normal;font-weight:normal;font-stretch:normal;font-family:Dyuthi;-inkscape-font-specification:Dyuthi;fill:#ffffff;stroke-width:0.09918834">ValmaTrack</tspan></text>
      </g>
      <path
         inkscape:connector-curvature="0"
         id="path992"
         transform="scale(0.26458333)"
         d="m 1575.7148,-143.9082 a 208.57143,137.85715 0 0 0 -118.7714,24.72656 134.35029,134.35029 0 0 0 118.8945,71.945312 134.35029,134.35029 0 0 0 118.8848,-71.970702 208.57143,137.85715 0 0 0 -119.0079,-24.70117 z"
         style="opacity:0.27000002;fill:url(#linearGradient996);fill-opacity:1;stroke:#60a0ff;stroke-width:0;stroke-linecap:round;stroke-linejoin:bevel;stroke-miterlimit:4;stroke-dasharray:none;stroke-opacity:1" />
    </g>
  </g>
</svg>
