{
  "project_info": {
    "project_number": "944112324486",
    "firebase_url": "https://gps-viajes-1535322663453.firebaseio.com",
    "project_id": "gps-viajes-1535322663453",
    "storage_bucket": "gps-viajes-1535322663453.appspot.com"
  },
  "client": [
    {
      "client_info": {
        "mobilesdk_app_id": "1:944112324486:android:6dbad53e8378675c",
        "android_client_info": {
          "package_name": "com.arquigames.erick.gpsviajes"
        }
      },
      "oauth_client": [
        {
          "client_id": "944112324486-vhgpfitiodogd9bma80971ee59v029di.apps.googleusercontent.com",
          "client_type": 1,
          "android_info": {
            "package_name": "com.arquigames.erick.gpsviajes",
            "certificate_hash": "a276c73f42ff4f7bdf81582f80e859b81d8521a7"
          }
        },
        {
          "client_id": "944112324486-hc4ntuad6g5lhg1l3fee6upkjg1th20t.apps.googleusercontent.com",
          "client_type": 3
        }
      ],
      "api_key": [
        {
          "current_key": "AIzaSyDgBcos9lO1OQzbZDvqAx3YeFOACPT_4SM"
        }
      ],
      "services": {
        "analytics_service": {
          "status": 1
        },
        "appinvite_service": {
          "status": 2,
          "other_platform_oauth_client": [
            {
              "client_id": "944112324486-hc4ntuad6g5lhg1l3fee6upkjg1th20t.apps.googleusercontent.com",
              "client_type": 3
            }
          ]
        },
        "ads_service": {
          "status": 2
        }
      }
    }
  ],
  "configuration_version": "1"
}